beer_case_study.knit
…
style_byState <- combined_df_nB %>% select(Style, ABV, IBU, State, Region)

#replacing empty strings with 'unknown'
style_byState$Style <- replace(style_byState$Style,
                               which(style_byState==""),
                               "Unknown")
## table(style_byState$Style) #checking update

#creating the dataframe for State-preferences
style_byState %>% group_by(State) %>%
  summarize(Style = names(which.max(table(Style))),
            ABV = mean(ABV), #could switch to median if needed
            IBU = mean(IBU))

## # A tibble: 51 x 4
##    State Style                       ABV   IBU
##    <chr> <chr>                     <dbl> <dbl>
##  1 AK    American IPA             0.0556  34.4
##  2 AL    American IPA             0.062   50.1
##  3 AR    American Amber / Red Ale 0.052   25  
##  4 AZ    American IPA             0.0564  37.8
##  5 CA    American IPA             0.0607  44.8
##  6 CO    American IPA             0.0598  47.0
##  7 CT    American Amber / Red Ale 0.0611  42.0
##  8 DC    American Blonde Ale      0.0656  54.9
##  9 DE    American IPA             0.0275  50.5
## 10 FL    American IPA             0.0579  41.4
## # ... with 41 more rows
…
